// Vitest Snapshot v1, https://vitest.dev/guide/snapshot.html

exports[`formatter > fixture run: basic-data 1`] = `
[
  {
    "categories": [
      "Style",
    ],
    "check_name": "number-leading-zero",
    "description": "Unexpected leading zero (number-leading-zero)",
    "fingerprint": "677fd5a7c1d5973f195636cfd0e23ddd34302d35daad13bec2ae5cded6c55f08",
    "location": {
      "lines": {
        "begin": 3,
        "end": 3,
      },
      "path": "/Users/test/Sites/example.com/css/first.css",
    },
    "severity": "major",
    "type": "issue",
  },
  {
    "categories": [
      "Style",
    ],
    "check_name": "declaration-block-no-shorthand-property-overrides",
    "description": "Unexpected shorthand "padding" after "padding-left" (declaration-block-no-shorthand-property-overrides)",
    "fingerprint": "40d729bc7c56f3f255864e36e015f3eb110cb01934f61567bb9cb9442f8f5185",
    "location": {
      "lines": {
        "begin": 7,
        "end": 7,
      },
      "path": "/Users/test/Sites/example.com/css/first.css",
    },
    "severity": "major",
    "type": "issue",
  },
  {
    "categories": [
      "Style",
    ],
    "check_name": "number-no-trailing-zeros",
    "description": "Unexpected trailing zero(s) (number-no-trailing-zeros)",
    "fingerprint": "46ae38a172508fb0fb5c83a104e771a310ad85e0f1aa6ae399abf82bf8b4b4b0",
    "location": {
      "lines": {
        "begin": 4,
        "end": 4,
      },
      "path": "/Users/test/Sites/example.com/css/second.css",
    },
    "severity": "minor",
    "type": "issue",
  },
  {
    "categories": [
      "Style",
    ],
    "check_name": "property-no-vendor-prefix",
    "description": "Unexpected vendor-prefix "-webkit-border-radius" (property-no-vendor-prefix)",
    "fingerprint": "f8d02c29c7bd8d4fc40f3790a4d986161eec0353eab5413f1b082cf08869e203",
    "location": {
      "lines": {
        "begin": 22,
        "end": 22,
      },
      "path": "/Users/test/Sites/example.com/css/third.css",
    },
    "severity": "major",
    "type": "issue",
  },
  {
    "categories": [
      "Style",
    ],
    "check_name": "max-empty-lines",
    "description": "Expected no more than 1 empty line(s) (max-empty-lines)",
    "fingerprint": "a273d6cfb21f195b090e09844724bfec9d60719400c9a534ddeeacc660e17124",
    "location": {
      "lines": {
        "begin": 24,
        "end": 24,
      },
      "path": "/Users/test/Sites/example.com/css/third.css",
    },
    "severity": "minor",
    "type": "issue",
  },
]
`;

exports[`formatter > fixture run: parse-error 1`] = `
[
  {
    "categories": [
      "Style",
    ],
    "check_name": "parse-error",
    "description": "Unexpected token (7:12)",
    "fingerprint": "95f6ed5834b3b544c40d99062ee8a39f9893d82a83837be63602549f75548189",
    "location": {
      "lines": {
        "begin": 7,
        "end": 7,
      },
      "path": "/Users/test/Sites/example.com/css/first.css",
    },
    "severity": "blocker",
    "type": "issue",
  },
]
`;
